FPGA Projects/ATmega328-compatible MCU/tb_avr_core_slice.vcd
$date
  Fri Jun 19 04:33:34 2026
$end
$version
  GHDL v0
$end
$timescale
  1 fs
$end
$scope module standard $end
$upscope $end
$scope module textio $end
$upscope $end
$scope module std_logic_1164 $end
$upscope $end
$scope module numeric_std $end
$upscope $end
$scope module env $end
$upscope $end
$scope module avr_pkg $end
$upscope $end
$scope module tb_avr_core_slice $end
$var reg 1 ! clk $end
$var reg 1 " reset $end
$var reg 16 # pmem_addr_s[15:0] $end
$var reg 1 $ pmem_req_s $end
$var reg 16 % pmem_rdata_s[15:0] $end
$var reg 1 & pmem_valid_s $end
$var reg 16 ' d_addr_s[15:0] $end
$var reg 8 ( d_wdata_s[7:0] $end
$var reg 8 ) d_rdata_s[7:0] $end
$var reg 1 * d_we_s $end
$var reg 1 + d_re_s $end
$var reg 1 , d_valid_s $end
$var reg 8 - irq_lines_s[7:0] $end
$comment dbg_s is not handled $end
$comment data_mem_s is not handled $end
$var reg 1 . saw_read_state_s $end
$var reg 1 / saw_write_state_s $end
$var reg 1 0 saw_branch_state_s $end
$var reg 1 1 saw_out25_s $end
$var reg 1 2 saw_out26_s $end
$var reg 1 3 saw_out27_s $end
$var reg 1 4 saw_out28_s $end
$var reg 1 5 saw_push_s $end
$var integer 32 6 finish_count_s $end
$scope module dut $end
$var reg 1 7 clk $end
$var reg 1 8 reset $end
$var reg 16 9 pmem_addr_o[15:0] $end
$var reg 1 : pmem_req_o $end
$var reg 16 ; pmem_rdata_i[15:0] $end
$var reg 1 < pmem_valid_i $end
$var reg 16 = d_addr_o[15:0] $end
$var reg 8 > d_wdata_o[7:0] $end
$var reg 8 ? d_rdata_i[7:0] $end
$var reg 1 @ d_we_o $end
$var reg 1 A d_re_o $end
$var reg 1 B d_valid_i $end
$var reg 8 C irq_lines_i[7:0] $end
$comment dbg_o is not handled $end
$comment dec_s is not handled $end
$comment ctrl_s is not handled $end
$comment sts_s is not handled $end
$var reg 16 D irq_vector_s[15:0] $end
$comment state_dbg_s is not handled $end
$var reg 16 E ir0_q[15:0] $end
$var reg 16 F ir1_q[15:0] $end
$var reg 16 G pc_q[15:0] $end
$var reg 16 H sp_q[15:0] $end
$var reg 8 I data_latch_q[7:0] $end
$var reg 8 J sreg_q[7:0] $end
$var reg 16 K rel_target_s[15:0] $end
$var reg 16 L pmem_addr_s[15:0] $end
$var reg 8 M rf_ra_data_s[7:0] $end
$var reg 8 N rf_rb_data_s[7:0] $end
$var reg 8 O rf_rc_data_s[7:0] $end
$var reg 8 P rf_wdata_s[7:0] $end
$var reg 8 Q rf_wpair_lo_s[7:0] $end
$var reg 8 R rf_wpair_hi_s[7:0] $end
$var reg 8 S alu_lhs_s[7:0] $end
$var reg 8 T alu_rhs_s[7:0] $end
$var reg 8 U alu_res_lo_s[7:0] $end
$var reg 8 V alu_res_hi_s[7:0] $end
$var reg 8 W alu_flags_s[7:0] $end
$var reg 16 X ptr_addr_s[15:0] $end
$var reg 16 Y d_addr_s[15:0] $end
$var reg 8 Z d_wdata_s[7:0] $end
$var reg 1 [ t_value_s $end
$scope module decoder_inst $end
$var reg 16 \ instr_word0_i[15:0] $end
$var reg 16 ] instr_word1_i[15:0] $end
$var reg 1 ^ instr_word1_valid_i $end
$comment dec_o is not handled $end
$upscope $end
$scope module ctrl_inst $end
$var reg 1 _ clk $end
$var reg 1 ` reset $end
$comment dec_i is not handled $end
$comment sts_i is not handled $end
$var reg 16 a irq_vector_i[15:0] $end
$comment state_o is not handled $end
$comment ctrl_o is not handled $end
$comment state_reg is not handled $end
$comment state_next is not handled $end
$comment ctrl_s is not handled $end
$upscope $end
$scope module regfile_inst $end
$var reg 1 b clk $end
$var reg 1 c reset $end
$var reg 5 d ra_idx_i[4:0] $end
$var reg 5 e rb_idx_i[4:0] $end
$var reg 5 f rc_idx_i[4:0] $end
$var reg 8 g ra_data_o[7:0] $end
$var reg 8 h rb_data_o[7:0] $end
$var reg 8 i rc_data_o[7:0] $end
$var reg 1 j we_i $end
$var reg 5 k wd_idx_i[4:0] $end
$var reg 8 l wd_data_i[7:0] $end
$var reg 1 m we_pair_i $end
$var reg 5 n wd_pair_idx_i[4:0] $end
$var reg 8 o wd_pair_lo_i[7:0] $end
$var reg 8 p wd_pair_hi_i[7:0] $end
$comment regs is not handled $end
$upscope $end
$scope module alu_inst $end
$var reg 8 q lhs_i[7:0] $end
$var reg 8 r rhs_i[7:0] $end
$var reg 1 s carry_in_i $end
$var reg 1 t bit_in_i $end
$comment op_i is not handled $end
$var reg 8 u result_lo_o[7:0] $end
$var reg 8 v result_hi_o[7:0] $end
$var reg 8 w flags_next_o[7:0] $end
$upscope $end
$scope module sreg_inst $end
$var reg 1 x clk $end
$var reg 1 y reset $end
$var reg 1 z flags_we_i $end
$var reg 8 { flags_next_i[7:0] $end
$var reg 1 | bit_set_we_i $end
$var reg 1 } bit_clr_we_i $end
$var reg 3 !" bit_idx_i[2:0] $end
$var reg 1 "" t_load_we_i $end
$var reg 1 #" t_value_i $end
$var reg 1 $" i_set_i $end
$var reg 1 %" i_clr_i $end
$var reg 8 &" sreg_q_o[7:0] $end
$var reg 8 '" sreg_q[7:0] $end
$upscope $end
$scope module pc_stack_inst $end
$var reg 1 (" clk $end
$var reg 1 )" reset $end
$comment pc_op_i is not handled $end
$comment sp_op_i is not handled $end
$var reg 16 *" abs_target_i[15:0] $end
$var reg 16 +" rel_target_i[15:0] $end
$var reg 16 ," irq_target_i[15:0] $end
$var reg 16 -" sp_write_data_i[15:0] $end
$var reg 16 ." pc_q_o[15:0] $end
$var reg 16 /" sp_q_o[15:0] $end
$var reg 16 0" pc_q[15:0] $end
$var reg 16 1" sp_q[15:0] $end
$upscope $end
$upscope $end
$upscope $end
$enddefinitions $end
#0
0!
1"
b0000000000000000 #
0$
b1110000100000010 %
1&
b0000000000000000 '
b00000000 (
b00000000 )
0*
0+
1,
b00000000 -
0.
0/
00
01
02
03
04
05
b0 6
07
18
b0000000000000000 9
0:
b1110000100000010 ;
1<
b0000000000000000 =
b00000000 >
b00000000 ?
0@
0A
1B
b00000000 C
b0000000000000000 D
b0000000000000000 E
b0000000000000000 F
b0000000000000000 G
b0000100011111111 H
b00000000 I
b00000000 J
b0000000000000000 K
b0000000000000000 L
b00000000 M
b00000000 N
b00000000 O
b00000000 P
b00000000 Q
b00000000 R
b00000000 S
b00000000 T
b00000000 U
b00000000 V
b00000000 W
b0000000000000000 X
b0000000000000000 Y
b00000000 Z
0[
b0000000000000000 \
b0000000000000000 ]
1^
0_
1`
b0000000000000000 a
0b
1c
b00000 d
b00000 e
b11110 f
b00000000 g
b00000000 h
b00000000 i
0j
b00000 k
b00000000 l
0m
b00000 n
b00000000 o
b00000000 p
b00000000 q
b00000000 r
0s
0t
b00000000 u
b00000000 v
b00000000 w
0x
1y
0z
b00000000 {
0|
0}
b000 !"
0""
0#"
0$"
0%"
b00000000 &"
b00000000 '"
0("
1)"
b0000000000000000 *"
b0000000000000000 +"
b0000000000000000 ,"
b0000000000000000 -"
b0000000000000000 ."
b0000100011111111 /"
b0000000000000000 0"
b0000100011111111 1"
#5000000
1!
17
1_
1b
1x
1("
#10000000
0!
07
0_
0b
0x
0("
#15000000
1!
17
1_
1b
1x
1("
#20000000
0!
07
0_
0b
0x
0("
#25000000
1!
17
1_
1b
1x
1("
#30000000
0!
07
0_
0b
0x
0("
#35000000
1!
17
1_
1b
1x
1("
#40000000
0!
0"
07
08
0_
0`
0b
0c
0x
0y
0("
0)"
#45000000
1!
1$
17
1:
1_
1b
1x
1("
#50000000
0!
07
0_
0b
0x
0("
#55000000
1!
0$
17
0:
1_
1b
1x
1("
#60000000
0!
07
0_
0b
0x
0("
#65000000
1!
b0000000000000001 #
b1110001100010100 %
17
b0000000000000001 9
b1110001100010100 ;
b1110000100000010 E
b0000000000000001 G
b0000000000000001 K
b0000000000000001 L
b1110000100000010 \
1_
1b
b10000 d
b10000 k
b10000 n
1x
1("
b0000000000000001 +"
b0000000000000001 ."
b0000000000000001 0"
#70000000
0!
07
0_
0b
0x
0("
#75000000
1!
17
b00010010 P
b00010010 Q
b00010010 T
b00010010 U
b00000000 W
1_
1b
1j
b00010010 l
b00010010 o
b00010010 r
b00010010 u
b00000000 w
1x
b00000000 {
1("
#80000000
0!
07
0_
0b
0x
0("
#85000000
1!
17
b00010010 M
b00000000 P
b00000000 Q
b00010010 S
b00000000 T
b00000000 U
b0000000000010010 X
1_
1b
b00010010 g
0j
b00000000 l
b00000000 o
b00010010 q
b00000000 r
b00000000 u
1x
1("
#90000000
0!
07
0_
0b
0x
0("
#95000000
1!
1$
17
1:
1_
1b
1x
1("
#100000000
0!
07
0_
0b
0x
0("
#105000000
1!
0$
17
0:
1_
1b
1x
1("
#110000000
0!
07
0_
0b
0x
0("
#115000000
1!
b0000000000000010 #
b0010111100100000 %
17
b0000000000000010 9
b0010111100100000 ;
b1110001100010100 E
b0000000000000010 G
b0000000000000010 K
b0000000000000010 L
b00000000 M
b00000000 S
b0000000000000000 X
b1110001100010100 \
1_
1b
b10001 d
b00000000 g
b10001 k
b10001 n
b00000000 q
1x
1("
b0000000000000010 +"
b0000000000000010 ."
b0000000000000010 0"
#120000000
0!
07
0_
0b
0x
0("
#125000000
1!
17
b00110100 P
b00110100 Q
b00110100 T
b00110100 U
b00000000 W
1_
1b
1j
b00110100 l
b00110100 o
b00110100 r
b00110100 u
b00000000 w
1x
b00000000 {
1("
#130000000
0!
07
0_
0b
0x
0("
#135000000
1!
17
b00110100 M
b00000000 P
b00000000 Q
b00110100 S
b00000000 T
b00000000 U
b0000000000110100 X
1_
1b
b00110100 g
0j
b00000000 l
b00000000 o
b00110100 q
b00000000 r
b00000000 u
1x
1("
#140000000
0!
07
0_
0b
0x
0("
#145000000
1!
1$
17
1:
1_
1b
1x
1("
#150000000
0!
07
0_
0b
0x
0("
#155000000
1!
0$
17
0:
1_
1b
1x
1("
#160000000
0!
07
0_
0b
0x
0("
#165000000
1!
b0000000000000011 #
b0000111100100001 %
17
b0000000000000011 9
b0000111100100001 ;
b0010111100100000 E
b0000000000000011 G
b0000000000000011 K
b0000000000000011 L
b00000000 M
b00010010 N
b00000000 S
b00010010 T
b0000000000000000 X
b0010111100100000 \
1_
1b
b10010 d
b10000 e
b00000000 g
b00010010 h
b10010 k
b10010 n
b00000000 q
b00010010 r
1x
1("
b0000000000000011 +"
b0000000000000011 ."
b0000000000000011 0"
#170000000
0!
07
0_
0b
0x
0("
#175000000
1!
17
b00010010 P
b00010010 Q
b00010010 U
1_
1b
1j
b00010010 l
b00010010 o
b00010010 u
1x
1("
#180000000
0!
07
0_
0b
0x
0("
#185000000
1!
17
b00010010 M
b00000000 P
b00000000 Q
b00010010 S
b00000000 U
b0000000000010010 X
1_
1b
b00010010 g
0j
b00000000 l
b00000000 o
b00010010 q
b00000000 u
1x
1("
#190000000
0!
07
0_
0b
0x
0("
#195000000
1!
1$
17
1:
1_
1b
1x
1("
#200000000
0!
07
0_
0b
0x
0("
#205000000
1!
0$
17
0:
1_
1b
1x
1("
#210000000
0!
07
0_
0b
0x
0("
#215000000
1!
b0000000000000100 #
b1011100100100101 %
17
b0000000000000100 9
b1011100100100101 ;
b0000111100100001 E
b0000000000000100 G
b0000000000000100 K
b0000000000000100 L
b00110100 N
b00110100 T
b0000111100100001 \
1_
1b
b10001 e
b00110100 h
b00110100 r
1x
1("
b0000000000000100 +"
b0000000000000100 ."
b0000000000000100 0"
#220000000
0!
07
0_
0b
0x
0("
#225000000
1!
17
b01000110 P
b01000110 Q
b01000110 U
1_
1b
1j
b01000110 l
b01000110 o
b01000110 u
1x
1z
1("
#230000000
0!
07
0_
0b
0x
0("
#235000000
1!
17
b01000110 M
b00000000 P
b00000000 Q
b01000110 S
b00000000 U
b0000000001000110 X
1_
1b
b01000110 g
0j
b00000000 l
b00000000 o
b01000110 q
b00000000 u
1x
0z
1("
#240000000
0!
07
0_
0b
0x
0("
#245000000
1!
1$
17
1:
1_
1b
1x
1("
#250000000
0!
07
0_
0b
0x
0("
#255000000
1!
0$
17
0:
1_
1b
1x
1("
#260000000
0!
07
0_
0b
0x
0("
#265000000
1!
b0000000000000101 #
b0001101100100000 %
17
b0000000000000101 9
b0001101100100000 ;
b1011100100100101 E
b0000000000000101 G
b0000000000000101 K
b0000000000000101 L
b00000000 M
b01000110 N
b00000000 S
b01000110 T
b0000000000000000 X
b1011100100100101 \
1_
1b
b00000 d
b10010 e
b00000000 g
b01000110 h
b00000 k
b00000 n
b00000000 q
b01000110 r
1x
1("
b0000000000000101 +"
b0000000000000101 ."
b0000000000000101 0"
#270000000
0!
07
0_
0b
0x
0("
#275000000
1!
17
1_
1b
1x
1("
#280000000
0!
07
0_
0b
0x
0("
#285000000
1!
b0000000000100101 '
b01000110 (
1*
17
b0000000000100101 =
b01000110 >
1@
b0000000000100101 Y
b01000110 Z
1_
1b
1x
1("
#290000000
0!
07
0_
0b
0x
0("
#295000000
1!
b0000000000000000 '
b00000000 (
b00000000 )
0*
1/
11
17
b0000000000000000 =
b00000000 >
b00000000 ?
0@
b0000000000000000 Y
b00000000 Z
1_
1b
1x
1("
#300000000
0!
07
0_
0b
0x
0("
#305000000
1!
1$
17
1:
1_
1b
1x
1("
#310000000
0!
07
0_
0b
0x
0("
#315000000
1!
0$
17
0:
1_
1b
1x
1("
#320000000
0!
07
0_
0b
0x
0("
#325000000
1!
b0000000000000110 #
b1011100100100110 %
17
b0000000000000110 9
b1011100100100110 ;
b0001101100100000 E
b0000000000000110 G
b0000000000000110 K
b0000000000000110 L
b01000110 M
b00010010 N
b01000110 S
b00010010 T
b0000000001000110 X
b0001101100100000 \
1_
1b
b10010 d
b10000 e
b01000110 g
b00010010 h
b10010 k
b10010 n
b01000110 q
b00010010 r
1x
1("
b0000000000000110 +"
b0000000000000110 ."
b0000000000000110 0"
#330000000
0!
07
0_
0b
0x
0("
#335000000
1!
17
b00110100 P
b00110100 Q
b00110100 U
1_
1b
1j
b00110100 l
b00110100 o
b00110100 u
1x
1z
1("
#340000000
0!
07
0_
0b
0x
0("
#345000000
1!
17
b00110100 M
b00000000 P
b00000000 Q
b00110100 S
b00000000 U
b0000000000110100 X
1_
1b
b00110100 g
0j
b00000000 l
b00000000 o
b00110100 q
b00000000 u
1x
0z
1("
#350000000
0!
07
0_
0b
0x
0("
#355000000
1!
1$
17
1:
1_
1b
1x
1("
#360000000
0!
07
0_
0b
0x
0("
#365000000
1!
0$
17
0:
1_
1b
1x
1("
#370000000
0!
07
0_
0b
0x
0("
#375000000
1!
b0000000000000111 #
b0001011100100001 %
17
b0000000000000111 9
b0001011100100001 ;
b1011100100100110 E
b0000000000000111 G
b0000000000000111 K
b0000000000000111 L
b00000000 M
b00110100 N
b00000000 S
b00110100 T
b0000000000000000 X
b1011100100100110 \
1_
1b
b00000 d
b10010 e
b00000000 g
b00110100 h
b00000 k
b00000 n
b00000000 q
b00110100 r
1x
1("
b0000000000000111 +"
b0000000000000111 ."
b0000000000000111 0"
#380000000
0!
07
0_
0b
0x
0("
#385000000
1!
17
1_
1b
1x
1("
#390000000
0!
07
0_
0b
0x
0("
#395000000
1!
b0000000000100110 '
b00110100 (
1*
17
b0000000000100110 =
b00110100 >
1@
b0000000000100110 Y
b00110100 Z
1_
1b
1x
1("
#400000000
0!
07
0_
0b
0x
0("
#405000000
1!
b0000000000000000 '
b00000000 (
b00000000 )
0*
12
17
b0000000000000000 =
b00000000 >
b00000000 ?
0@
b0000000000000000 Y
b00000000 Z
1_
1b
1x
1("
#410000000
0!
07
0_
0b
0x
0("
#415000000
1!
1$
17
1:
1_
1b
1x
1("
#420000000
0!
07
0_
0b
0x
0("
#425000000
1!
0$
17
0:
1_
1b
1x
1("
#430000000
0!
07
0_
0b
0x
0("
#435000000
1!
b0000000000001000 #
b1001001100101111 %
17
b0000000000001000 9
b1001001100101111 ;
b0001011100100001 E
b0000000000001000 G
b0000000000001000 K
b0000000000001000 L
b00110100 M
b00110100 S
b0000000000110100 X
b0001011100100001 \
1_
1b
b10010 d
b10001 e
b00110100 g
b10010 k
b10010 n
b00110100 q
1x
1("
b0000000000001000 +"
b0000000000001000 ."
b0000000000001000 0"
#440000000
0!
07
0_
0b
0x
0("
#445000000
1!
17
b00000010 W
1_
1b
b00000010 w
1x
1z
b00000010 {
1("
#450000000
0!
07
0_
0b
0x
0("
#455000000
1!
17
b00000010 J
b00000000 W
1_
1b
b00000000 w
1x
0z
b00000000 {
b00000010 &"
b00000010 '"
1("
#460000000
0!
07
0_
0b
0x
0("
#465000000
1!
1$
17
1:
1_
1b
1x
1("
#470000000
0!
07
0_
0b
0x
0("
#475000000
1!
0$
17
0:
1_
1b
1x
1("
#480000000
0!
07
0_
0b
0x
0("
#485000000
1!
b0000000000001001 #
b1001000100111111 %
17
b0000000000001001 9
b1001000100111111 ;
b1001001100101111 E
b0000000000001001 G
b0000000000001001 K
b0000000000001001 L
b00000000 M
b00000000 S
b0000000000000000 X
b1001001100101111 \
1_
1b
b00000 d
b10010 e
b00000000 g
b00000 k
b00000 n
b00000000 q
1x
1("
b0000000000001001 +"
b0000000000001001 ."
b0000000000001001 0"
#490000000
0!
07
0_
0b
0x
0("
#495000000
1!
17
1_
1b
1x
1("
#500000000
0!
07
0_
0b
0x
0("
#505000000
1!
b0000100011111110 '
b00110100 (
1*
17
b0000100011111110 =
b00110100 >
1@
b0000100011111110 H
b0000100011111110 Y
b00110100 Z
1_
1b
1x
1("
b0000100011111110 /"
b0000100011111110 1"
#510000000
0!
07
0_
0b
0x
0("
#515000000
1!
b0000000000000000 '
b00000000 (
b00000000 )
0*
15
17
b0000000000000000 =
b00000000 >
b00000000 ?
0@
b0000000000000000 Y
b00000000 Z
1_
1b
1x
1("
#520000000
0!
07
0_
0b
0x
0("
#525000000
1!
1$
17
1:
1_
1b
1x
1("
#530000000
0!
07
0_
0b
0x
0("
#535000000
1!
0$
17
0:
1_
1b
1x
1("
#540000000
0!
07
0_
0b
0x
0("
#545000000
1!
b0000000000001010 #
b1011100100110111 %
17
b0000000000001010 9
b1011100100110111 ;
b1001000100111111 E
b0000000000001010 G
b0000000000001010 K
b0000000000001010 L
b00000000 N
b00000000 T
b1001000100111111 \
1_
1b
b10011 d
b00000 e
b00000000 h
b10011 k
b10011 n
b00000000 r
1x
1("
b0000000000001010 +"
b0000000000001010 ."
b0000000000001010 0"
#550000000
0!
07
0_
0b
0x
0("
#555000000
1!
b0000100011111110 '
b00110100 )
1+
17
b0000100011111110 =
b00110100 ?
1A
b0000100011111110 Y
1_
1b
1x
1("
#560000000
0!
07
0_
0b
0x
0("
#565000000
1!
0+
1.
17
0A
1_
1b
1x
1("
#570000000
0!
07
0_
0b
0x
0("
#575000000
1!
b0000000000000000 '
b00000000 )
17
b0000000000000000 =
b00000000 ?
b00110100 I
b00110100 P
b0000000000000000 Y
1_
1b
1j
b00110100 l
1x
1("
#580000000
0!
07
0_
0b
0x
0("
#585000000
1!
17
b0000100011111111 H
b00110100 M
b00000000 P
b00110100 S
b0000000000110100 X
1_
1b
b00110100 g
0j
b00000000 l
b00110100 q
1x
1("
b0000100011111111 /"
b0000100011111111 1"
#590000000
0!
07
0_
0b
0x
0("
#595000000
1!
1$
17
1:
1_
1b
1x
1("
#600000000
0!
07
0_
0b
0x
0("
#605000000
1!
0$
17
0:
1_
1b
1x
1("
#610000000
0!
07
0_
0b
0x
0("
#615000000
1!
b0000000000001011 #
b1011000101000011 %
17
b0000000000001011 9
b1011000101000011 ;
b1011100100110111 E
b0000000000001011 G
b0000000000001011 K
b0000000000001011 L
b00000000 M
b00110100 N
b00000000 S
b00110100 T
b0000000000000000 X
b1011100100110111 \
1_
1b
b00000 d
b10011 e
b00000000 g
b00110100 h
b00000 k
b00000 n
b00000000 q
b00110100 r
1x
1("
b0000000000001011 +"
b0000000000001011 ."
b0000000000001011 0"
#620000000
0!
07
0_
0b
0x
0("
#625000000
1!
17
1_
1b
1x
1("
#630000000
0!
07
0_
0b
0x
0("
#635000000
1!
b0000000000100111 '
b00110100 (
1*
17
b0000000000100111 =
b00110100 >
1@
b0000000000100111 Y
b00110100 Z
1_
1b
1x
1("
#640000000
0!
07
0_
0b
0x
0("
#645000000
1!
b0000000000000000 '
b00000000 (
b00000000 )
0*
13
17
b0000000000000000 =
b00000000 >
b00000000 ?
0@
b0000000000000000 Y
b00000000 Z
1_
1b
1x
1("
#650000000
0!
07
0_
0b
0x
0("
#655000000
1!
1$
17
1:
1_
1b
1x
1("
#660000000
0!
07
0_
0b
0x
0("
#665000000
1!
0$
17
0:
1_
1b
1x
1("
#670000000
0!
07
0_
0b
0x
0("
#675000000
1!
b0000000000001100 #
b1011100101001000 %
17
b0000000000001100 9
b1011100101001000 ;
b1011000101000011 E
b0000000000001100 G
b0000000000001100 K
b0000000000001100 L
b00000000 N
b00000000 T
b1011000101000011 \
1_
1b
b10100 d
b00000 e
b00000000 h
b10100 k
b10100 n
b00000000 r
1x
1("
b0000000000001100 +"
b0000000000001100 ."
b0000000000001100 0"
#680000000
0!
07
0_
0b
0x
0("
#685000000
1!
b0000000000100011 '
b01011010 )
1+
17
b0000000000100011 =
b01011010 ?
1A
b0000000000100011 Y
1_
1b
1x
1("
#690000000
0!
07
0_
0b
0x
0("
#695000000
1!
0+
17
0A
1_
1b
1x
1("
#700000000
0!
07
0_
0b
0x
0("
#705000000
1!
b0000000000000000 '
b00000000 )
17
b0000000000000000 =
b00000000 ?
b01011010 I
b01011010 P
b0000000000000000 Y
1_
1b
1j
b01011010 l
1x
1("
#710000000
0!
07
0_
0b
0x
0("
#715000000
1!
17
b01011010 M
b00000000 P
b01011010 S
b0000000001011010 X
1_
1b
b01011010 g
0j
b00000000 l
b01011010 q
1x
1("
#720000000
0!
07
0_
0b
0x
0("
#725000000
1!
1$
17
1:
1_
1b
1x
1("
#730000000
0!
07
0_
0b
0x
0("
#735000000
1!
0$
17
0:
1_
1b
1x
1("
#740000000
0!
07
0_
0b
0x
0("
#745000000
1!
b0000000000001101 #
b1100111111111111 %
17
b0000000000001101 9
b1100111111111111 ;
b1011100101001000 E
b0000000000001101 G
b0000000000001101 K
b0000000000001101 L
b00000000 M
b01011010 N
b00000000 S
b01011010 T
b0000000000000000 X
b1011100101001000 \
1_
1b
b00000 d
b10100 e
b00000000 g
b01011010 h
b00000 k
b00000 n
b00000000 q
b01011010 r
1x
1("
b0000000000001101 +"
b0000000000001101 ."
b0000000000001101 0"
#750000000
0!
07
0_
0b
0x
0("
#755000000
1!
17
1_
1b
1x
1("
#760000000
0!
07
0_
0b
0x
0("
#765000000
1!
b0000000000101000 '
b01011010 (
1*
17
b0000000000101000 =
b01011010 >
1@
b0000000000101000 Y
b01011010 Z
1_
1b
1x
1("
#770000000
0!
07
0_
0b
0x
0("
#775000000
1!
b0000000000000000 '
b00000000 (
b00000000 )
0*
14
17
b0000000000000000 =
b00000000 >
b00000000 ?
0@
b0000000000000000 Y
b00000000 Z
1_
1b
1x
1("
#780000000
0!
07
0_
0b
0x
0("
#785000000
1!
1$
b1 6
17
1:
1_
1b
1x
1("
#790000000
0!
07
0_
0b
0x
0("
#795000000
1!
0$
b10 6
17
0:
1_
1b
1x
1("
#800000000
0!
07
0_
0b
0x
0("
#805000000
1!
b0000000000001110 #
b0000000000000000 %
b11 6
17
b0000000000001110 9
b0000000000000000 ;
b1100111111111111 E
b0000000000001110 G
b0000000000001110 L
b00000000 N
b00000000 T
b1100111111111111 \
1_
1b
b00000 e
b00000000 h
b00000000 r
1x
1("
b1111111111111111 *"
b1111111111111111 -"
b0000000000001110 ."
b0000000000001110 0"
#810000000
0!
07
0_
0b
0x
0("
#815000000
1!
17
1_
1b
1x
1("
#820000000
0!
07
0_
0b
0x
0("
#825000000
1!
b0000000000001101 #
b1100111111111111 %
10
17
b0000000000001101 9
b1100111111111111 ;
b0000000000001101 G
b0000000000001100 K
b0000000000001101 L
1_
1b
1x
1("
b0000000000001100 +"
b0000000000001101 ."
b0000000000001101 0"
#830000000
0!
07
0_
0b
0x
0("
#835000000
1!
1$
b100 6
17
1:
1_
1b
1x
1("
#840000000
0!
07
0_
0b
0x
0("
#845000000
1!
0$
b101 6
17
0:
1_
1b
1x
1("
